<svg xmlns="http://www.w3.org/2000/svg" width="28" height="28" viewBox="0 0 28 28">
  <g id="Group_32" data-name="Group 32" transform="translate(626.169 758.169) rotate(180)">
    <circle id="Ellipse_3" data-name="Ellipse 3" cx="14" cy="14" r="14" transform="translate(598.169 730.169)"/>
    <path id="Icon_open-arrow-right" data-name="Icon open-arrow-right" d="M4.181,0V2.787h6.968V4.181H4.181V6.968L0,3.442Z" transform="translate(606.573 740.41)" fill="#fff"/>
  </g>
</svg>
